%YAML 1.1
%TAG !u! tag:unity3d.com,2011:
--- !u!114 &11400000
MonoBehaviour:
  m_ObjectHideFlags: 0
  m_CorrespondingSourceObject: {fileID: 0}
  m_PrefabInstance: {fileID: 0}
  m_PrefabAsset: {fileID: 0}
  m_GameObject: {fileID: 0}
  m_Enabled: 1
  m_EditorHideFlags: 0
  m_Script: {fileID: 11500000, guid: e7c79403bdd9a41498e8d67ec20154d0, type: 3}
  m_Name: AkWwiseProjectData
  m_EditorClassIdentifier: 
  AcousticTextureWwu:
  - PhysicalPath: Virtual Acoustics\Default Work Unit.wwu
    PathAndIcons:
    - ElementName: Virtual Acoustics
      ObjectType: 5
      guid: 00000000000000000000000000000000
    - ElementName: Default Work Unit
      ObjectType: 12
      guid: e86ae60ebd26794595926cdf2a89b358
    ParentPath: Virtual Acoustics\Default Work Unit
    guid: e86ae60ebd26794595926cdf2a89b358
    GuidInternal: 
    m_lastTime: -8585592547725685285
    List: []
  - PhysicalPath: Virtual Acoustics\Factory Acoustic Textures.wwu
    PathAndIcons:
    - ElementName: Virtual Acoustics
      ObjectType: 5
      guid: 00000000000000000000000000000000
    - ElementName: Factory Acoustic Textures
      ObjectType: 12
      guid: 6b663d46a83ca54f8b4a5fef12b883f6
    ParentPath: Virtual Acoustics\Factory Acoustic Textures
    guid: 6b663d46a83ca54f8b4a5fef12b883f6
    GuidInternal: 
    m_lastTime: -8585614296892741864
    List:
    - name: Acoustic_Banner
      guid: f2532d2fccda8e408b8898b1b52a26d6
      id: 4168643977
      PathAndIcons:
      - ElementName: Virtual Acoustics
        ObjectType: 5
        guid: 00000000000000000000000000000000
      - ElementName: Factory Acoustic Textures
        ObjectType: 12
        guid: 6b663d46a83ca54f8b4a5fef12b883f6
      - ElementName: Textures
        ObjectType: 4
        guid: a3121e7828e3df4a8bba5fb89c74031d
      - ElementName: Acoustic_Banner
        ObjectType: 15
        guid: f2532d2fccda8e408b8898b1b52a26d6
      Path: Virtual Acoustics\Factory Acoustic Textures\Textures\Acoustic_Banner
    - name: Anechoic
      guid: 32c20a8be202de4ebeacfdd1a900e3ed
      id: 1873957695
      PathAndIcons:
      - ElementName: Virtual Acoustics
        ObjectType: 5
        guid: 00000000000000000000000000000000
      - ElementName: Factory Acoustic Textures
        ObjectType: 12
        guid: 6b663d46a83ca54f8b4a5fef12b883f6
      - ElementName: Textures
        ObjectType: 4
        guid: a3121e7828e3df4a8bba5fb89c74031d
      - ElementName: Anechoic
        ObjectType: 15
        guid: 32c20a8be202de4ebeacfdd1a900e3ed
      Path: Virtual Acoustics\Factory Acoustic Textures\Textures\Anechoic
    - name: Brick
      guid: a9a586b004f2534ca838bdb18b18f6d6
      id: 504532776
      PathAndIcons:
      - ElementName: Virtual Acoustics
        ObjectType: 5
        guid: 00000000000000000000000000000000
      - ElementName: Factory Acoustic Textures
        ObjectType: 12
        guid: 6b663d46a83ca54f8b4a5fef12b883f6
      - ElementName: Textures
        ObjectType: 4
        guid: a3121e7828e3df4a8bba5fb89c74031d
      - ElementName: Brick
        ObjectType: 15
        guid: a9a586b004f2534ca838bdb18b18f6d6
      Path: Virtual Acoustics\Factory Acoustic Textures\Textures\Brick
    - name: Carpet
      guid: 8975223456dc604296c4b9f4b669092b
      id: 2412606308
      PathAndIcons:
      - ElementName: Virtual Acoustics
        ObjectType: 5
        guid: 00000000000000000000000000000000
      - ElementName: Factory Acoustic Textures
        ObjectType: 12
        guid: 6b663d46a83ca54f8b4a5fef12b883f6
      - ElementName: Textures
        ObjectType: 4
        guid: a3121e7828e3df4a8bba5fb89c74031d
      - ElementName: Carpet
        ObjectType: 15
        guid: 8975223456dc604296c4b9f4b669092b
      Path: Virtual Acoustics\Factory Acoustic Textures\Textures\Carpet
    - name: Concrete
      guid: 001cf85c9628e04aaf7c3080bdaba682
      id: 841620460
      PathAndIcons:
      - ElementName: Virtual Acoustics
        ObjectType: 5
        guid: 00000000000000000000000000000000
      - ElementName: Factory Acoustic Textures
        ObjectType: 12
        guid: 6b663d46a83ca54f8b4a5fef12b883f6
      - ElementName: Textures
        ObjectType: 4
        guid: a3121e7828e3df4a8bba5fb89c74031d
      - ElementName: Concrete
        ObjectType: 15
        guid: 001cf85c9628e04aaf7c3080bdaba682
      Path: Virtual Acoustics\Factory Acoustic Textures\Textures\Concrete
    - name: Cork_Tiles
      guid: 19c9d2305f92434189063dbb3c4ae5e2
      id: 3195498748
      PathAndIcons:
      - ElementName: Virtual Acoustics
        ObjectType: 5
        guid: 00000000000000000000000000000000
      - ElementName: Factory Acoustic Textures
        ObjectType: 12
        guid: 6b663d46a83ca54f8b4a5fef12b883f6
      - ElementName: Textures
        ObjectType: 4
        guid: a3121e7828e3df4a8bba5fb89c74031d
      - ElementName: Cork_Tiles
        ObjectType: 15
        guid: 19c9d2305f92434189063dbb3c4ae5e2
      Path: Virtual Acoustics\Factory Acoustic Textures\Textures\Cork_Tiles
    - name: Curtains
      guid: 339ee6f8975c6849b508a1535f2d66e8
      id: 2928161104
      PathAndIcons:
      - ElementName: Virtual Acoustics
        ObjectType: 5
        guid: 00000000000000000000000000000000
      - ElementName: Factory Acoustic Textures
        ObjectType: 12
        guid: 6b663d46a83ca54f8b4a5fef12b883f6
      - ElementName: Textures
        ObjectType: 4
        guid: a3121e7828e3df4a8bba5fb89c74031d
      - ElementName: Curtains
        ObjectType: 15
        guid: 339ee6f8975c6849b508a1535f2d66e8
      Path: Virtual Acoustics\Factory Acoustic Textures\Textures\Curtains
    - name: Drywall
      guid: f4e3a4680b4c8746a8b8a84db93dbc8f
      id: 3670307564
      PathAndIcons:
      - ElementName: Virtual Acoustics
        ObjectType: 5
        guid: 00000000000000000000000000000000
      - ElementName: Factory Acoustic Textures
        ObjectType: 12
        guid: 6b663d46a83ca54f8b4a5fef12b883f6
      - ElementName: Textures
        ObjectType: 4
        guid: a3121e7828e3df4a8bba5fb89c74031d
      - ElementName: Drywall
        ObjectType: 15
        guid: f4e3a4680b4c8746a8b8a84db93dbc8f
      Path: Virtual Acoustics\Factory Acoustic Textures\Textures\Drywall
    - name: Fabric
      guid: 32d581836edbed4ea7a3bc7b0a0b8ba8
      id: 1970351858
      PathAndIcons:
      - ElementName: Virtual Acoustics
        ObjectType: 5
        guid: 00000000000000000000000000000000
      - ElementName: Factory Acoustic Textures
        ObjectType: 12
        guid: 6b663d46a83ca54f8b4a5fef12b883f6
      - ElementName: Textures
        ObjectType: 4
        guid: a3121e7828e3df4a8bba5fb89c74031d
      - ElementName: Fabric
        ObjectType: 15
        guid: 32d581836edbed4ea7a3bc7b0a0b8ba8
      Path: Virtual Acoustics\Factory Acoustic Textures\Textures\Fabric
    - name: Mountain
      guid: 313793c51a00b44a98dd9b033a8c8eab
      id: 513139656
      PathAndIcons:
      - ElementName: Virtual Acoustics
        ObjectType: 5
        guid: 00000000000000000000000000000000
      - ElementName: Factory Acoustic Textures
        ObjectType: 12
        guid: 6b663d46a83ca54f8b4a5fef12b883f6
      - ElementName: Textures
        ObjectType: 4
        guid: a3121e7828e3df4a8bba5fb89c74031d
      - ElementName: Mountain
        ObjectType: 15
        guid: 313793c51a00b44a98dd9b033a8c8eab
      Path: Virtual Acoustics\Factory Acoustic Textures\Textures\Mountain
    - name: Textures
      guid: a3121e7828e3df4a8bba5fb89c74031d
      id: 1276632493
      PathAndIcons:
      - ElementName: Virtual Acoustics
        ObjectType: 5
        guid: 00000000000000000000000000000000
      - ElementName: Factory Acoustic Textures
        ObjectType: 12
        guid: 6b663d46a83ca54f8b4a5fef12b883f6
      - ElementName: Textures
        ObjectType: 4
        guid: a3121e7828e3df4a8bba5fb89c74031d
      Path: Virtual Acoustics\Factory Acoustic Textures\Textures
    - name: Tile
      guid: c4da82a82a13b747ba9db9907ba29cc0
      id: 2637588553
      PathAndIcons:
      - ElementName: Virtual Acoustics
        ObjectType: 5
        guid: 00000000000000000000000000000000
      - ElementName: Factory Acoustic Textures
        ObjectType: 12
        guid: 6b663d46a83ca54f8b4a5fef12b883f6
      - ElementName: Textures
        ObjectType: 4
        guid: a3121e7828e3df4a8bba5fb89c74031d
      - ElementName: Tile
        ObjectType: 15
        guid: c4da82a82a13b747ba9db9907ba29cc0
      Path: Virtual Acoustics\Factory Acoustic Textures\Textures\Tile
    - name: Wood
      guid: 96bcff1fe76f9e48ba6c7c14a71391ae
      id: 2058049674
      PathAndIcons:
      - ElementName: Virtual Acoustics
        ObjectType: 5
        guid: 00000000000000000000000000000000
      - ElementName: Factory Acoustic Textures
        ObjectType: 12
        guid: 6b663d46a83ca54f8b4a5fef12b883f6
      - ElementName: Textures
        ObjectType: 4
        guid: a3121e7828e3df4a8bba5fb89c74031d
      - ElementName: Wood
        ObjectType: 15
        guid: 96bcff1fe76f9e48ba6c7c14a71391ae
      Path: Virtual Acoustics\Factory Acoustic Textures\Textures\Wood
    - name: Wood_Bright
      guid: e5d1857ba2c1634e9a13cec54b641adc
      id: 4262522749
      PathAndIcons:
      - ElementName: Virtual Acoustics
        ObjectType: 5
        guid: 00000000000000000000000000000000
      - ElementName: Factory Acoustic Textures
        ObjectType: 12
        guid: 6b663d46a83ca54f8b4a5fef12b883f6
      - ElementName: Textures
        ObjectType: 4
        guid: a3121e7828e3df4a8bba5fb89c74031d
      - ElementName: Wood_Bright
        ObjectType: 15
        guid: e5d1857ba2c1634e9a13cec54b641adc
      Path: Virtual Acoustics\Factory Acoustic Textures\Textures\Wood_Bright
    - name: Wood_Deep
      guid: 8e474652dac50c4ea0dec98d1479529a
      id: 1755085759
      PathAndIcons:
      - ElementName: Virtual Acoustics
        ObjectType: 5
        guid: 00000000000000000000000000000000
      - ElementName: Factory Acoustic Textures
        ObjectType: 12
        guid: 6b663d46a83ca54f8b4a5fef12b883f6
      - ElementName: Textures
        ObjectType: 4
        guid: a3121e7828e3df4a8bba5fb89c74031d
      - ElementName: Wood_Deep
        ObjectType: 15
        guid: 8e474652dac50c4ea0dec98d1479529a
      Path: Virtual Acoustics\Factory Acoustic Textures\Textures\Wood_Deep
  AuxBusWwu:
  - PhysicalPath: Master-Mixer Hierarchy\Default Work Unit.wwu
    PathAndIcons:
    - ElementName: Master-Mixer Hierarchy
      ObjectType: 5
      guid: 00000000000000000000000000000000
    - ElementName: Default Work Unit
      ObjectType: 12
      guid: 663da8682abc494caeb856f6028b2aa0
    ParentPath: Master-Mixer Hierarchy\Default Work Unit
    guid: 663da8682abc494caeb856f6028b2aa0
    GuidInternal: 
    m_lastTime: -8585592547726445453
    List:
    - name: Master Audio Bus
      guid: d8a41415a61d2a41a17e75ca0c2149f3
      id: 3803692087
      PathAndIcons:
      - ElementName: Master-Mixer Hierarchy
        ObjectType: 5
        guid: 00000000000000000000000000000000
      - ElementName: Default Work Unit
        ObjectType: 12
        guid: 663da8682abc494caeb856f6028b2aa0
      - ElementName: Master Audio Bus
        ObjectType: 2
        guid: d8a41415a61d2a41a17e75ca0c2149f3
      Path: Master-Mixer Hierarchy\Default Work Unit\Master Audio Bus
  BankWwu:
  - PhysicalPath: SoundBanks\Default Work Unit.wwu
    PathAndIcons:
    - ElementName: SoundBanks
      ObjectType: 5
      guid: 00000000000000000000000000000000
    - ElementName: Default Work Unit
      ObjectType: 12
      guid: 313c353586e42e49afe4960ebc6faba2
    ParentPath: SoundBanks\Default Work Unit
    guid: 313c353586e42e49afe4960ebc6faba2
    GuidInternal: 
    m_lastTime: -8585592496244437701
    List:
    - name: Master
      guid: 1c20fa16c28b6b4bbe6ec73240788a14
      id: 4056684167
      PathAndIcons:
      - ElementName: SoundBanks
        ObjectType: 5
        guid: 00000000000000000000000000000000
      - ElementName: Default Work Unit
        ObjectType: 12
        guid: 313c353586e42e49afe4960ebc6faba2
      - ElementName: Master
        ObjectType: 7
        guid: 1c20fa16c28b6b4bbe6ec73240788a14
      Path: SoundBanks\Default Work Unit\Master
  EventWwu:
  - PhysicalPath: Events\Default Work Unit.wwu
    PathAndIcons:
    - ElementName: Events
      ObjectType: 5
      guid: 00000000000000000000000000000000
    - ElementName: Default Work Unit
      ObjectType: 12
      guid: d1003904fb92f649869e9e6aac7c73bf
    ParentPath: Events\Default Work Unit
    guid: d1003904fb92f649869e9e6aac7c73bf
    GuidInternal: 
    m_lastTime: -8585590693621600329
    List:
    - name: amb_desert
      guid: aefe72b79730994c91cd9cbb141bd410
      id: 3346050181
      PathAndIcons:
      - ElementName: Events
        ObjectType: 5
        guid: 00000000000000000000000000000000
      - ElementName: Default Work Unit
        ObjectType: 12
        guid: d1003904fb92f649869e9e6aac7c73bf
      - ElementName: Ambience
        ObjectType: 4
        guid: ccebaa3613e1224689c54fddd92875f4
      - ElementName: amb_desert
        ObjectType: 3
        guid: aefe72b79730994c91cd9cbb141bd410
      Path: Events\Default Work Unit\Ambience\amb_desert
      maxAttenuation: 0
      maxDuration: -1
      minDuration: -1
    - name: Ambience
      guid: ccebaa3613e1224689c54fddd92875f4
      id: 85412153
      PathAndIcons:
      - ElementName: Events
        ObjectType: 5
        guid: 00000000000000000000000000000000
      - ElementName: Default Work Unit
        ObjectType: 12
        guid: d1003904fb92f649869e9e6aac7c73bf
      - ElementName: Ambience
        ObjectType: 4
        guid: ccebaa3613e1224689c54fddd92875f4
      Path: Events\Default Work Unit\Ambience
      maxAttenuation: 0
      maxDuration: -1
      minDuration: -1
    - name: Character
      guid: 070ac8eeff135b42a34192cd93be6f53
      id: 436743010
      PathAndIcons:
      - ElementName: Events
        ObjectType: 5
        guid: 00000000000000000000000000000000
      - ElementName: Default Work Unit
        ObjectType: 12
        guid: d1003904fb92f649869e9e6aac7c73bf
      - ElementName: Character
        ObjectType: 4
        guid: 070ac8eeff135b42a34192cd93be6f53
      Path: Events\Default Work Unit\Character
      maxAttenuation: 0
      maxDuration: -1
      minDuration: -1
    - name: footsteps
      guid: db89d9d3b542ab4a980dd890e2303710
      id: 2385628198
      PathAndIcons:
      - ElementName: Events
        ObjectType: 5
        guid: 00000000000000000000000000000000
      - ElementName: Default Work Unit
        ObjectType: 12
        guid: d1003904fb92f649869e9e6aac7c73bf
      - ElementName: Character
        ObjectType: 4
        guid: 070ac8eeff135b42a34192cd93be6f53
      - ElementName: footsteps
        ObjectType: 3
        guid: db89d9d3b542ab4a980dd890e2303710
      Path: Events\Default Work Unit\Character\footsteps
      maxAttenuation: 0
      maxDuration: -1
      minDuration: -1
  - PhysicalPath: Events\Factory Tencent GME.wwu
    PathAndIcons:
    - ElementName: Events
      ObjectType: 5
      guid: 00000000000000000000000000000000
    - ElementName: Factory Tencent GME
      ObjectType: 12
      guid: b1390e77527c2a44a4f7653ae6b0c847
    ParentPath: Events\Factory Tencent GME
    guid: b1390e77527c2a44a4f7653ae6b0c847
    GuidInternal: 
    m_lastTime: -8585592588463748187
    List:
    - name: Play_GME_Receive
      guid: b9fd181e09834b479d8449b3160f1d07
      id: 1185674625
      PathAndIcons:
      - ElementName: Events
        ObjectType: 5
        guid: 00000000000000000000000000000000
      - ElementName: Factory Tencent GME
        ObjectType: 12
        guid: b1390e77527c2a44a4f7653ae6b0c847
      - ElementName: Play_GME_Receive
        ObjectType: 3
        guid: b9fd181e09834b479d8449b3160f1d07
      Path: Events\Factory Tencent GME\Play_GME_Receive
      maxAttenuation: 0
      maxDuration: -1
      minDuration: -1
    - name: Play_GME_Send
      guid: 7adc73897a7e844aad30b546cb50720b
      id: 2793175796
      PathAndIcons:
      - ElementName: Events
        ObjectType: 5
        guid: 00000000000000000000000000000000
      - ElementName: Factory Tencent GME
        ObjectType: 12
        guid: b1390e77527c2a44a4f7653ae6b0c847
      - ElementName: Play_GME_Send
        ObjectType: 3
        guid: 7adc73897a7e844aad30b546cb50720b
      Path: Events\Factory Tencent GME\Play_GME_Send
      maxAttenuation: 0
      maxDuration: -1
      minDuration: -1
    - name: Stop_GME_Receive
      guid: 7f9f163778a9b042bdaeb768cefce580
      id: 4154133439
      PathAndIcons:
      - ElementName: Events
        ObjectType: 5
        guid: 00000000000000000000000000000000
      - ElementName: Factory Tencent GME
        ObjectType: 12
        guid: b1390e77527c2a44a4f7653ae6b0c847
      - ElementName: Stop_GME_Receive
        ObjectType: 3
        guid: 7f9f163778a9b042bdaeb768cefce580
      Path: Events\Factory Tencent GME\Stop_GME_Receive
      maxAttenuation: 0
      maxDuration: -1
      minDuration: -1
    - name: Stop_GME_Send
      guid: 88cc267825b7394594162f53e7723708
      id: 2839222858
      PathAndIcons:
      - ElementName: Events
        ObjectType: 5
        guid: 00000000000000000000000000000000
      - ElementName: Factory Tencent GME
        ObjectType: 12
        guid: b1390e77527c2a44a4f7653ae6b0c847
      - ElementName: Stop_GME_Send
        ObjectType: 3
        guid: 88cc267825b7394594162f53e7723708
      Path: Events\Factory Tencent GME\Stop_GME_Send
      maxAttenuation: 0
      maxDuration: -1
      minDuration: -1
  RtpcWwu:
  - PhysicalPath: Game Parameters\Default Work Unit.wwu
    PathAndIcons:
    - ElementName: Game Parameters
      ObjectType: 5
      guid: 00000000000000000000000000000000
    - ElementName: Default Work Unit
      ObjectType: 12
      guid: d7f8c4bfdf072148882bbfe96908837a
    ParentPath: Game Parameters\Default Work Unit
    guid: d7f8c4bfdf072148882bbfe96908837a
    GuidInternal: 
    m_lastTime: -8585590693621510313
    List:
    - name: ext_foot_veloctiy
      guid: cc6e913abe9b5d478929880e2f0f8591
      id: 3990589487
      PathAndIcons:
      - ElementName: Game Parameters
        ObjectType: 5
        guid: 00000000000000000000000000000000
      - ElementName: Default Work Unit
        ObjectType: 12
        guid: d7f8c4bfdf072148882bbfe96908837a
      - ElementName: ext_foot_veloctiy
        ObjectType: 13
        guid: cc6e913abe9b5d478929880e2f0f8591
      Path: Game Parameters\Default Work Unit\ext_foot_veloctiy
  - PhysicalPath: Game Parameters\Factory Igniter Live Game Syncs.wwu
    PathAndIcons:
    - ElementName: Game Parameters
      ObjectType: 5
      guid: 00000000000000000000000000000000
    - ElementName: Factory Igniter Live Game Syncs
      ObjectType: 12
      guid: 7bcb7b9bba729142b50477f748886ea4
    ParentPath: Game Parameters\Factory Igniter Live Game Syncs
    guid: 7bcb7b9bba729142b50477f748886ea4
    GuidInternal: 
    m_lastTime: -8585593389210701469
    List:
    - name: IGN_Eng_Exh_Position
      guid: 2da73867a21d1b4cb8e44ca9b217dd40
      id: 1776289502
      PathAndIcons:
      - ElementName: Game Parameters
        ObjectType: 5
        guid: 00000000000000000000000000000000
      - ElementName: Factory Igniter Live Game Syncs
        ObjectType: 12
        guid: 7bcb7b9bba729142b50477f748886ea4
      - ElementName: IGN_Eng_Exh_Position
        ObjectType: 13
        guid: 2da73867a21d1b4cb8e44ca9b217dd40
      Path: Game Parameters\Factory Igniter Live Game Syncs\IGN_Eng_Exh_Position
    - name: IGN_Gearbox_Throttle
      guid: 07c76050917b6b408891f0a53b659853
      id: 3744760799
      PathAndIcons:
      - ElementName: Game Parameters
        ObjectType: 5
        guid: 00000000000000000000000000000000
      - ElementName: Factory Igniter Live Game Syncs
        ObjectType: 12
        guid: 7bcb7b9bba729142b50477f748886ea4
      - ElementName: IGN_Gearbox_Throttle
        ObjectType: 13
        guid: 07c76050917b6b408891f0a53b659853
      Path: Game Parameters\Factory Igniter Live Game Syncs\IGN_Gearbox_Throttle
    - name: IGN_Harley_Grain_Loop_Blend
      guid: 3482bb0fe0d281408cb1a3a6740533f8
      id: 1573260114
      PathAndIcons:
      - ElementName: Game Parameters
        ObjectType: 5
        guid: 00000000000000000000000000000000
      - ElementName: Factory Igniter Live Game Syncs
        ObjectType: 12
        guid: 7bcb7b9bba729142b50477f748886ea4
      - ElementName: IGN_Harley_Grain_Loop_Blend
        ObjectType: 13
        guid: 3482bb0fe0d281408cb1a3a6740533f8
      Path: Game Parameters\Factory Igniter Live Game Syncs\IGN_Harley_Grain_Loop_Blend
    - name: IGN_Load
      guid: f0dbf6964bbe364eab3bde052af318c0
      id: 1046277832
      PathAndIcons:
      - ElementName: Game Parameters
        ObjectType: 5
        guid: 00000000000000000000000000000000
      - ElementName: Factory Igniter Live Game Syncs
        ObjectType: 12
        guid: 7bcb7b9bba729142b50477f748886ea4
      - ElementName: IGN_Load
        ObjectType: 13
        guid: f0dbf6964bbe364eab3bde052af318c0
      Path: Game Parameters\Factory Igniter Live Game Syncs\IGN_Load
    - name: IGN_RPM
      guid: 3b9985fdee20dd4194ebc17453945455
      id: 2202868459
      PathAndIcons:
      - ElementName: Game Parameters
        ObjectType: 5
        guid: 00000000000000000000000000000000
      - ElementName: Factory Igniter Live Game Syncs
        ObjectType: 12
        guid: 7bcb7b9bba729142b50477f748886ea4
      - ElementName: IGN_RPM
        ObjectType: 13
        guid: 3b9985fdee20dd4194ebc17453945455
      Path: Game Parameters\Factory Igniter Live Game Syncs\IGN_RPM
  - PhysicalPath: Game Parameters\Factory Igniter Live Synth Game Syncs.wwu
    PathAndIcons:
    - ElementName: Game Parameters
      ObjectType: 5
      guid: 00000000000000000000000000000000
    - ElementName: Factory Igniter Live Synth Game Syncs
      ObjectType: 12
      guid: 006ae4824720f94892d401684c1325f6
    ParentPath: Game Parameters\Factory Igniter Live Synth Game Syncs
    guid: 006ae4824720f94892d401684c1325f6
    GuidInternal: 
    m_lastTime: -8585593389210681465
    List:
    - name: IgniterSynth_REV
      guid: ddf67fe3cfcc094aa17a7afc060c69f2
      id: 1355046805
      PathAndIcons:
      - ElementName: Game Parameters
        ObjectType: 5
        guid: 00000000000000000000000000000000
      - ElementName: Factory Igniter Live Synth Game Syncs
        ObjectType: 12
        guid: 006ae4824720f94892d401684c1325f6
      - ElementName: IgniterSynth_REV
        ObjectType: 13
        guid: ddf67fe3cfcc094aa17a7afc060c69f2
      Path: Game Parameters\Factory Igniter Live Synth Game Syncs\IgniterSynth_REV
    - name: IgniterSynth_State
      guid: f78b53518d523f4390329b2b65a5890b
      id: 3696491809
      PathAndIcons:
      - ElementName: Game Parameters
        ObjectType: 5
        guid: 00000000000000000000000000000000
      - ElementName: Factory Igniter Live Synth Game Syncs
        ObjectType: 12
        guid: 006ae4824720f94892d401684c1325f6
      - ElementName: IgniterSynth_State
        ObjectType: 13
        guid: f78b53518d523f4390329b2b65a5890b
      Path: Game Parameters\Factory Igniter Live Synth Game Syncs\IgniterSynth_State
  - PhysicalPath: Game Parameters\Factory Motion.wwu
    PathAndIcons:
    - ElementName: Game Parameters
      ObjectType: 5
      guid: 00000000000000000000000000000000
    - ElementName: Factory Motion
      ObjectType: 12
      guid: 225213d7dbd1d042adc0930743567776
    ParentPath: Game Parameters\Factory Motion
    guid: 225213d7dbd1d042adc0930743567776
    GuidInternal: 
    m_lastTime: -8585614296573264056
    List:
    - name: Playback_Rate
      guid: e37e38283ac11643b9c3db5c521624af
      id: 1524500807
      PathAndIcons:
      - ElementName: Game Parameters
        ObjectType: 5
        guid: 00000000000000000000000000000000
      - ElementName: Factory Motion
        ObjectType: 12
        guid: 225213d7dbd1d042adc0930743567776
      - ElementName: Playback_Rate
        ObjectType: 13
        guid: e37e38283ac11643b9c3db5c521624af
      Path: Game Parameters\Factory Motion\Playback_Rate
    - name: RPM
      guid: 05aa129177f5fd449f4e4424158129e6
      id: 796049864
      PathAndIcons:
      - ElementName: Game Parameters
        ObjectType: 5
        guid: 00000000000000000000000000000000
      - ElementName: Factory Motion
        ObjectType: 12
        guid: 225213d7dbd1d042adc0930743567776
      - ElementName: RPM
        ObjectType: 13
        guid: 05aa129177f5fd449f4e4424158129e6
      Path: Game Parameters\Factory Motion\RPM
  - PhysicalPath: Game Parameters\Factory SoundSeed Air Game Syncs.wwu
    PathAndIcons:
    - ElementName: Game Parameters
      ObjectType: 5
      guid: 00000000000000000000000000000000
    - ElementName: Factory SoundSeed Air Game Syncs
      ObjectType: 12
      guid: 5577163b42fb8b4598bf96f557afb3b9
    ParentPath: Game Parameters\Factory SoundSeed Air Game Syncs
    guid: 5577163b42fb8b4598bf96f557afb3b9
    GuidInternal: 
    m_lastTime: -8585614296622866574
    List:
    - name: SS_Air_Fear
      guid: 59062ef746431c4ea1b1dab46a05101e
      id: 1351367891
      PathAndIcons:
      - ElementName: Game Parameters
        ObjectType: 5
        guid: 00000000000000000000000000000000
      - ElementName: Factory SoundSeed Air Game Syncs
        ObjectType: 12
        guid: 5577163b42fb8b4598bf96f557afb3b9
      - ElementName: SS_Air_Fear
        ObjectType: 13
        guid: 59062ef746431c4ea1b1dab46a05101e
      Path: Game Parameters\Factory SoundSeed Air Game Syncs\SS_Air_Fear
    - name: SS_Air_Freefall
      guid: 37fe2d2f9e4f944d83d853cca39781ad
      id: 3002758120
      PathAndIcons:
      - ElementName: Game Parameters
        ObjectType: 5
        guid: 00000000000000000000000000000000
      - ElementName: Factory SoundSeed Air Game Syncs
        ObjectType: 12
        guid: 5577163b42fb8b4598bf96f557afb3b9
      - ElementName: SS_Air_Freefall
        ObjectType: 13
        guid: 37fe2d2f9e4f944d83d853cca39781ad
      Path: Game Parameters\Factory SoundSeed Air Game Syncs\SS_Air_Freefall
    - name: SS_Air_Fury
      guid: dc79aea23acaba4696529986c322a87b
      id: 1029930033
      PathAndIcons:
      - ElementName: Game Parameters
        ObjectType: 5
        guid: 00000000000000000000000000000000
      - ElementName: Factory SoundSeed Air Game Syncs
        ObjectType: 12
        guid: 5577163b42fb8b4598bf96f557afb3b9
      - ElementName: SS_Air_Fury
        ObjectType: 13
        guid: dc79aea23acaba4696529986c322a87b
      Path: Game Parameters\Factory SoundSeed Air Game Syncs\SS_Air_Fury
    - name: SS_Air_Month
      guid: 45b4e209a3c47f44b3ca818a1d925ef7
      id: 2648548617
      PathAndIcons:
      - ElementName: Game Parameters
        ObjectType: 5
        guid: 00000000000000000000000000000000
      - ElementName: Factory SoundSeed Air Game Syncs
        ObjectType: 12
        guid: 5577163b42fb8b4598bf96f557afb3b9
      - ElementName: SS_Air_Month
        ObjectType: 13
        guid: 45b4e209a3c47f44b3ca818a1d925ef7
      Path: Game Parameters\Factory SoundSeed Air Game Syncs\SS_Air_Month
    - name: SS_Air_Presence
      guid: 1a81b7e32f7b0f49b44f5fe51b468041
      id: 3847924954
      PathAndIcons:
      - ElementName: Game Parameters
        ObjectType: 5
        guid: 00000000000000000000000000000000
      - ElementName: Factory SoundSeed Air Game Syncs
        ObjectType: 12
        guid: 5577163b42fb8b4598bf96f557afb3b9
      - ElementName: SS_Air_Presence
        ObjectType: 13
        guid: 1a81b7e32f7b0f49b44f5fe51b468041
      Path: Game Parameters\Factory SoundSeed Air Game Syncs\SS_Air_Presence
    - name: SS_Air_RPM
      guid: ab9048a3d5b92645a64d5290c43ef2dc
      id: 822163944
      PathAndIcons:
      - ElementName: Game Parameters
        ObjectType: 5
        guid: 00000000000000000000000000000000
      - ElementName: Factory SoundSeed Air Game Syncs
        ObjectType: 12
        guid: 5577163b42fb8b4598bf96f557afb3b9
      - ElementName: SS_Air_RPM
        ObjectType: 13
        guid: ab9048a3d5b92645a64d5290c43ef2dc
      Path: Game Parameters\Factory SoundSeed Air Game Syncs\SS_Air_RPM
    - name: SS_Air_Size
      guid: efeb291393a12e47a38c64668b494879
      id: 3074696722
      PathAndIcons:
      - ElementName: Game Parameters
        ObjectType: 5
        guid: 00000000000000000000000000000000
      - ElementName: Factory SoundSeed Air Game Syncs
        ObjectType: 12
        guid: 5577163b42fb8b4598bf96f557afb3b9
      - ElementName: SS_Air_Size
        ObjectType: 13
        guid: efeb291393a12e47a38c64668b494879
      Path: Game Parameters\Factory SoundSeed Air Game Syncs\SS_Air_Size
    - name: SS_Air_Storm
      guid: db8c3fe9d1063747acaf7cd44bbed783
      id: 3715662592
      PathAndIcons:
      - ElementName: Game Parameters
        ObjectType: 5
        guid: 00000000000000000000000000000000
      - ElementName: Factory SoundSeed Air Game Syncs
        ObjectType: 12
        guid: 5577163b42fb8b4598bf96f557afb3b9
      - ElementName: SS_Air_Storm
        ObjectType: 13
        guid: db8c3fe9d1063747acaf7cd44bbed783
      Path: Game Parameters\Factory SoundSeed Air Game Syncs\SS_Air_Storm
    - name: SS_Air_TimeOfDay
      guid: 2ca76f537e8c8b4cae03ef34fdadc314
      id: 3203397129
      PathAndIcons:
      - ElementName: Game Parameters
        ObjectType: 5
        guid: 00000000000000000000000000000000
      - ElementName: Factory SoundSeed Air Game Syncs
        ObjectType: 12
        guid: 5577163b42fb8b4598bf96f557afb3b9
      - ElementName: SS_Air_TimeOfDay
        ObjectType: 13
        guid: 2ca76f537e8c8b4cae03ef34fdadc314
      Path: Game Parameters\Factory SoundSeed Air Game Syncs\SS_Air_TimeOfDay
    - name: SS_Air_Turbulence
      guid: 197ba8edaa73a0409f192073606db710
      id: 4160247818
      PathAndIcons:
      - ElementName: Game Parameters
        ObjectType: 5
        guid: 00000000000000000000000000000000
      - ElementName: Factory SoundSeed Air Game Syncs
        ObjectType: 12
        guid: 5577163b42fb8b4598bf96f557afb3b9
      - ElementName: SS_Air_Turbulence
        ObjectType: 13
        guid: 197ba8edaa73a0409f192073606db710
      Path: Game Parameters\Factory SoundSeed Air Game Syncs\SS_Air_Turbulence
  - PhysicalPath: Game Parameters\Factory SoundSeed Grain.wwu
    PathAndIcons:
    - ElementName: Game Parameters
      ObjectType: 5
      guid: 00000000000000000000000000000000
    - ElementName: Factory SoundSeed Grain
      ObjectType: 12
      guid: 97bdcb0b5177774a85bb6ac940f8cc3f
    ParentPath: Game Parameters\Factory SoundSeed Grain
    guid: 97bdcb0b5177774a85bb6ac940f8cc3f
    GuidInternal: 
    m_lastTime: -8585614296569243235
    List:
    - name: Density_FA_SSGrain
      guid: 9ef2b363f3048748ba1a4d7694644b24
      id: 2715217995
      PathAndIcons:
      - ElementName: Game Parameters
        ObjectType: 5
        guid: 00000000000000000000000000000000
      - ElementName: Factory SoundSeed Grain
        ObjectType: 12
        guid: 97bdcb0b5177774a85bb6ac940f8cc3f
      - ElementName: Density_FA_SSGrain
        ObjectType: 13
        guid: 9ef2b363f3048748ba1a4d7694644b24
      Path: Game Parameters\Factory SoundSeed Grain\Density_FA_SSGrain
    - name: Immersion_FA_SSGrain
      guid: 22e6413f6c163245bef71dc9ff7eab94
      id: 2481728872
      PathAndIcons:
      - ElementName: Game Parameters
        ObjectType: 5
        guid: 00000000000000000000000000000000
      - ElementName: Factory SoundSeed Grain
        ObjectType: 12
        guid: 97bdcb0b5177774a85bb6ac940f8cc3f
      - ElementName: Immersion_FA_SSGrain
        ObjectType: 13
        guid: 22e6413f6c163245bef71dc9ff7eab94
      Path: Game Parameters\Factory SoundSeed Grain\Immersion_FA_SSGrain
    - name: Instrument_FA_SSGrain
      guid: 44af796282c00846981e9a63d1ee7555
      id: 2317409760
      PathAndIcons:
      - ElementName: Game Parameters
        ObjectType: 5
        guid: 00000000000000000000000000000000
      - ElementName: Factory SoundSeed Grain
        ObjectType: 12
        guid: 97bdcb0b5177774a85bb6ac940f8cc3f
      - ElementName: Instrument_FA_SSGrain
        ObjectType: 13
        guid: 44af796282c00846981e9a63d1ee7555
      Path: Game Parameters\Factory SoundSeed Grain\Instrument_FA_SSGrain
    - name: Proximity_FA_SSGrain
      guid: b4abf1053873bc42a378b1e2b12ee3cb
      id: 1791284502
      PathAndIcons:
      - ElementName: Game Parameters
        ObjectType: 5
        guid: 00000000000000000000000000000000
      - ElementName: Factory SoundSeed Grain
        ObjectType: 12
        guid: 97bdcb0b5177774a85bb6ac940f8cc3f
      - ElementName: Proximity_FA_SSGrain
        ObjectType: 13
        guid: b4abf1053873bc42a378b1e2b12ee3cb
      Path: Game Parameters\Factory SoundSeed Grain\Proximity_FA_SSGrain
    - name: RPM_FA_SSGrain
      guid: 5be692c0c4e5554c8a68576e98bbff39
      id: 1656280998
      PathAndIcons:
      - ElementName: Game Parameters
        ObjectType: 5
        guid: 00000000000000000000000000000000
      - ElementName: Factory SoundSeed Grain
        ObjectType: 12
        guid: 97bdcb0b5177774a85bb6ac940f8cc3f
      - ElementName: RPM_FA_SSGrain
        ObjectType: 13
        guid: 5be692c0c4e5554c8a68576e98bbff39
      Path: Game Parameters\Factory SoundSeed Grain\RPM_FA_SSGrain
    - name: Simulation_FA_SSGrain
      guid: 71509071790afe429cd6c631171dc3a4
      id: 2428833394
      PathAndIcons:
      - ElementName: Game Parameters
        ObjectType: 5
        guid: 00000000000000000000000000000000
      - ElementName: Factory SoundSeed Grain
        ObjectType: 12
        guid: 97bdcb0b5177774a85bb6ac940f8cc3f
      - ElementName: Simulation_FA_SSGrain
        ObjectType: 13
        guid: 71509071790afe429cd6c631171dc3a4
      Path: Game Parameters\Factory SoundSeed Grain\Simulation_FA_SSGrain
  StateWwu:
  - PhysicalPath: States\Default Work Unit.wwu
    PathAndIcons:
    - ElementName: States
      ObjectType: 5
      guid: 00000000000000000000000000000000
    - ElementName: Default Work Unit
      ObjectType: 12
      guid: cc396363b2833b4d92fa8c7fa8e00cb4
    ParentPath: States\Default Work Unit
    guid: cc396363b2833b4d92fa8c7fa8e00cb4
    GuidInternal: 
    m_lastTime: -8585592547726395447
    List: []
  SwitchWwu:
  - PhysicalPath: Switches\Default Work Unit.wwu
    PathAndIcons:
    - ElementName: Switches
      ObjectType: 5
      guid: 00000000000000000000000000000000
    - ElementName: Default Work Unit
      ObjectType: 12
      guid: 617526084a20704289876ac0721da132
    ParentPath: Switches\Default Work Unit
    guid: 617526084a20704289876ac0721da132
    GuidInternal: 
    m_lastTime: -8585592547725785311
    List: []
  TriggerWwu:
  - PhysicalPath: Triggers\Default Work Unit.wwu
    PathAndIcons:
    - ElementName: Triggers
      ObjectType: 5
      guid: 00000000000000000000000000000000
    - ElementName: Default Work Unit
      ObjectType: 12
      guid: 4c0f4f1a8aaece4091242358433c9e1f
    ParentPath: Triggers\Default Work Unit
    guid: 4c0f4f1a8aaece4091242358433c9e1f
    GuidInternal: 
    m_lastTime: -8585592547726155390
    List: []
  ExpandedFileSystemItemIds: 
  ExpandedWaapiItemIds: 0100000008000000090000000a0000000b000000140000001500000043000000
  AutoSyncSelection: 0
  autoPopulateEnabled: 1
  currentDataSource: 0
  CurrentPluginConfig: 
